{
  
  "DatabaseSettings": {
    "host": "localhost",
    "user": "root",
    "password": "root",
    "database": "template",
    "port": 8889,
    "connectionLimit":50
  },
  "emailSettings":
          {
              "email":"gffgfd",
               "password":"ffdf"
          },
  "PORT":8000
}